Wide vs. Long Data in MNL
…
It turns out that all mlogit.data() does is create long-format data table with some extra meta-information. This isn’t exactly a data.frame object, but it basically looks like one. The nice thing about it is that you can give it your data in long or wide format, and it will do a lot of dark magic to autmatically infer what the columns mean.

Long format

Let’s first look at using mlogit.data() with long data:

dat_from_long  = mlogit.data(train_long, 
                             shape="long", 
                             alt.var = "option", 
                             alt.levels = c("A","B"),
                             id.var = "id")
dat_from_long

## # A tibble: 5,858 x 8
##       id option choice price  time income   id1 idx$chid $alt 
##    <int> <fct>  <lgl>  <dbl> <dbl>  <dbl> <int>    <int> <fct>
##  1     1 A      FALSE   2320    95 100000     1        1 A    
##  2     1 B      TRUE    1740   105 100000     1        1 B    
##  3     2 A      TRUE    2800   115  33000     2        2 A    
##  4     2 B      FALSE   4000   115  33000     2        2 B    
##  5     3 A      FALSE   3500   115  94000     3        3 A    
##  6     3 B      TRUE    2975   130  94000     3        3 B    
##  7     4 A      TRUE    3500    95  83000     4        4 A    
##  8     4 B      FALSE   3500   120  83000     4        4 B    
##  9     5 A      TRUE    5250   165  71000     5        5 A    
## 10     5 B      FALSE   6300   150  71000     5        5 B    
## # … with 5,848 more rows
…
Note: In this case, we didn’t actually have to tell R what columns were user vs. product features! Because this is long data, they’re inferred automatically (anything that isn’t the option, choice or id). When we run the MNL model later we’ll have to specify what is a user vs. product feature, but for the formatting part it doesn’t make a difference to R. This will not be the case for wide data.

Wide format

Now let’s look at doing the same thing with wide data:

dat_from_wide = mlogit.data(train_wide, 
                            shape = "wide", 
                            choice = "choice",
                            varying = c(3,4,5,6),
                            sep="_",
                            id.var = "id")
dat_from_wide

## # A tibble: 5,858 x 8
##       id choice income alt   price  time  chid idx$chid   $id $alt 
##    <int> <lgl>   <dbl> <fct> <dbl> <dbl> <int>    <int> <int> <fct>
##  1     1 FALSE  100000 A      2320    95     1        1     1 A    
##  2     1 TRUE   100000 B      1740   105     1        1     1 B    
##  3     2 TRUE    33000 A      2800   115     2        2     2 A    
##  4     2 FALSE   33000 B      4000   115     2        2     2 B    
##  5     3 FALSE   94000 A      3500   115     3        3     3 A    
##  6     3 TRUE    94000 B      2975   130     3        3     3 B    
##  7     4 TRUE    83000 A      3500    95     4        4     4 A    
##  8     4 FALSE   83000 B      3500   120     4        4     4 B    
##  9     5 TRUE    71000 A      5250   165     5        5     5 A    
## 10     5 FALSE   71000 B      6300   150     5        5     5 B    
## # … with 5,848 more rows
…
